{
  "project_info": {
    "project_number": "373977537047",
    "firebase_url": "https://leedgoprovider.firebaseio.com",
    "project_id": "leedgoprovider",
    "storage_bucket": "leedgoprovider.appspot.com"
  },
  "client": [
    {
      "client_info": {
        "mobilesdk_app_id": "1:373977537047:android:9243e1fa425c0014b9da52",
        "android_client_info": {
          "package_name": "com.leedgoprovider.app"
        }
      },
      "oauth_client": [

        {



          "client_id": "373977537047-ih8jgoe1svh2nntg3mj6msbco4t3cbb1.apps.googleusercontent.com",
          "client_type": 1,
          "android_info": {
            "package_name": "com.leedgoprovider.app",
            "certificate_hash": "7856dc058ab5ea6c9b616417c3e434b71e092541"
          }
        },
        {
          "client_id": "373977537047-duuf3llj15cir5pc7jgr97l3cudia33q.apps.googleusercontent.com",
          "client_type": 1,
          "android_info": {
            "package_name": "com.leedgoprovider.app",
            "certificate_hash": "fdb0302653b4c762c4dd5566d1896e25ee9b5c21"
          }
        },
        {
          "client_id": "373977537047-ih8jgoe1svh2nntg3mj6msbco4t3cbb1.apps.googleusercontent.com",
          "client_type": 3
        }
      ],
      "api_key": [
        {
          "current_key": "AIzaSyCJqWnuojxyYeB8hSI8Ngseu2SKgr9WoDg"
        }
      ],
      "services": {
        "appinvite_service": {
          "other_platform_oauth_client": [
            {
              "client_id": "373977537047-ih8jgoe1svh2nntg3mj6msbco4t3cbb1.apps.googleusercontent.com",
              "client_type": 3
            }
          ]
        }
      }
    }
  ],
  "configuration_version": "1"
}